<svg width="101" height="100" viewBox="0 0 101 100" fill="none" xmlns="http://www.w3.org/2000/svg">
<g clip-path="url(#clip0_807_29)">
<path d="M80.2119 94H13.2203C12.7401 94 12.5 93.6397 12.5 93.1593V12.2111C12.5 11.7307 12.8602 11.3704 13.2203 11.3704H80.2119C80.6921 11.3704 81.0523 11.7307 81.0523 12.2111V93.1593C81.0523 93.7598 80.6921 94 80.2119 94ZM14.0607 92.4387H79.4915V13.0518H14.0607V92.4387Z" fill="#004F59"/>
<path d="M19 11.5V7H86.5V89H80.5" stroke="#004F59" stroke-width="1.5"/>
<path d="M55.3068 50.0607C48.268 50.0607 42.4898 44.2804 42.4898 37.239C42.4898 30.1975 48.268 24.4172 55.3068 24.4172C55.727 24.4172 56.0422 24.7325 56.0422 25.1529V36.6084H67.4934C67.9137 36.6084 68.2288 36.9237 68.2288 37.3441C68.1238 44.2804 62.4507 50.0607 55.3068 50.0607ZM54.6765 25.7835C48.6882 26.0988 43.9606 31.1434 43.9606 37.239C43.9606 43.5447 49.1084 48.6945 55.4119 48.6945C61.5052 48.6945 66.4429 43.9651 66.8631 37.9746H55.3068C54.8866 37.9746 54.5714 37.6594 54.5714 37.239V25.7835H54.6765Z" fill="#004F59"/>
<path d="M69.8047 34.7166H58.4585C58.0383 34.7166 57.7231 34.4013 57.7231 33.981V22.7357C57.7231 22.3153 58.0383 22 58.4585 22C65.0771 22 70.435 27.3599 70.435 33.981C70.435 34.4013 70.1199 34.7166 69.8047 34.7166ZM59.1939 33.3504H69.0693C68.7541 27.9905 64.4468 23.7866 59.1939 23.4713V33.3504Z" fill="#40C1AC"/>
<path d="M22.5 22H40.5" stroke="#004F59" stroke-width="1.5" stroke-linecap="round"/>
<path d="M22.5 27H34.5" stroke="#004F59" stroke-width="1.5" stroke-linecap="round"/>
<path d="M22.5 31H32.5" stroke="#004F59" stroke-width="1.5" stroke-linecap="round"/>
<path d="M22.5 53H39.5" stroke="#004F59" stroke-width="1.5" stroke-linecap="round"/>
<path d="M22.5 57H34.5" stroke="#004F59" stroke-width="1.5" stroke-linecap="round"/>
<path d="M28.7436 85.8342H34.3111C34.5796 85.8342 34.8 85.6376 34.8 85.3638V76.0724C34.8 75.7987 34.5796 75.602 34.3111 75.602H28.7436C28.4752 75.602 28.2548 75.7987 28.2548 76.0724V85.3638C28.2548 85.6376 28.4752 85.8342 28.7436 85.8342ZM33.8222 76.5428V84.8477H29.2809V76.5428H33.8222Z" fill="#004F59" stroke="#004F59" stroke-width="0.3"/>
<path d="M39.0556 85.8342H44.6231C44.8915 85.8342 45.112 85.6375 45.112 85.3638V62.8905C45.112 62.6167 44.8915 62.4201 44.6231 62.4201H39.0556C38.7871 62.4201 38.5667 62.6167 38.5667 62.8905V85.3638C38.5667 85.6375 38.7871 85.8342 39.0556 85.8342ZM44.1342 63.3609V84.8476H39.5929V63.3609H44.1342Z" fill="#004F59" stroke="#004F59" stroke-width="0.3"/>
<path d="M49.4159 85.8342H54.935C55.1906 85.8342 55.4723 85.6492 55.4723 85.318V65.5452C55.4723 65.2714 55.2519 65.0748 54.9834 65.0748H49.4159C49.1475 65.0748 48.9271 65.2714 48.9271 65.5452V85.3638C48.9271 85.6376 49.1475 85.8342 49.4159 85.8342ZM54.4461 66.0613V84.8476H49.9048V66.0613H54.4461Z" fill="#004F59" stroke="#004F59" stroke-width="0.3"/>
<path d="M59.7279 85.8342H65.2954C65.4286 85.8342 65.5539 85.7863 65.6456 85.6909C65.7371 85.5957 65.7843 85.4647 65.7843 85.318V59.3204C65.7843 59.0466 65.5638 58.85 65.2954 58.85H59.7279C59.4594 58.85 59.239 59.0466 59.239 59.3204V85.3638C59.239 85.6376 59.4594 85.8342 59.7279 85.8342ZM64.7581 59.8366V84.8476H60.2168V59.8366H64.7581Z" fill="#004F59" stroke="#004F59" stroke-width="0.3"/>
<path d="M25.8389 85.8342H68.2001C68.331 85.8342 68.4575 85.7877 68.5448 85.6961C68.6314 85.6051 68.6695 85.479 68.6403 85.3446C68.6302 85.0809 68.4139 84.8934 68.1517 84.8934H25.8389C25.5704 84.8934 25.35 85.09 25.35 85.3638C25.35 85.6375 25.5704 85.8342 25.8389 85.8342Z" fill="#004F59" stroke="#004F59" stroke-width="0.3"/>
</g>
<defs>
<clipPath id="clip0_807_29">
<rect width="76" height="88" fill="white" transform="translate(12.5 6)"/>
</clipPath>
</defs>
</svg>
